<?xml version="1.0" encoding="utf-8"?>
<!-- Generator: Adobe Illustrator 16.0.0, SVG Export Plug-In . SVG Version: 6.00 Build 0)  -->
<!DOCTYPE svg PUBLIC "-//W3C//DTD SVG 1.1//EN" "http://www.w3.org/Graphics/SVG/1.1/DTD/svg11.dtd">
<svg version="1.1" id="Layer_1" xmlns="http://www.w3.org/2000/svg" xmlns:xlink="http://www.w3.org/1999/xlink" x="0px" y="0px"
	 width="37.593px" height="18.785px" viewBox="0 0 37.593 18.785" enable-background="new 0 0 37.593 18.785" xml:space="preserve">
<polygon points="37.593,3.041 18.81,18.785 0.025,3.041 2.593,-0.024 18.81,13.566 35.025,-0.024 "/>
</svg>
